<svg width="20" height="29" viewBox="0 0 20 29" fill="none" xmlns="http://www.w3.org/2000/svg">
<path d="M19.1304 21.75H20V22.6562H19.1304V21.75Z" fill="white"/>
<path d="M19.1304 19.0312H20V20.8438H19.1304V19.0312Z" fill="white"/>
<path d="M17.8261 0H5.65217C5.07562 0 4.52267 0.238699 4.11498 0.663586C3.7073 1.08847 3.47826 1.66474 3.47826 2.26562V6.79688H4.34783V2.26562C4.34783 1.9051 4.48525 1.55933 4.72986 1.3044C4.97447 1.04947 5.30624 0.90625 5.65217 0.90625H17.8261C18.172 0.90625 18.5038 1.04947 18.7484 1.3044C18.993 1.55933 19.1304 1.9051 19.1304 2.26562V18.125H20V2.26562C20 1.66474 19.771 1.08847 19.3633 0.663586C18.9556 0.238699 18.4026 0 17.8261 0Z" fill="white"/>
<path d="M19.1304 26.7344C19.1304 27.0949 18.993 27.4407 18.7484 27.6956C18.5038 27.9505 18.172 28.0938 17.8261 28.0938H5.65217C5.30624 28.0938 4.97447 27.9505 4.72986 27.6956C4.48525 27.4407 4.34783 27.0949 4.34783 26.7344V21.2969H3.47826V26.7344C3.47826 27.3353 3.7073 27.9115 4.11498 28.3364C4.52267 28.7613 5.07562 29 5.65217 29H17.8261C18.4026 29 18.9556 28.7613 19.3633 28.3364C19.771 27.9115 20 27.3353 20 26.7344V23.5625H19.1304V26.7344Z" fill="white"/>
<path d="M5.21739 24.9219V25.8281C5.21739 26.1887 5.35481 26.5344 5.59943 26.7893C5.84404 27.0443 6.1758 27.1875 6.52174 27.1875H7.3913V26.2812H6.52174C6.40643 26.2812 6.29584 26.2335 6.2143 26.1485C6.13276 26.0636 6.08696 25.9483 6.08696 25.8281V24.9219H5.21739Z" fill="white"/>
<path d="M7.82609 1.8125V2.26562C7.82609 2.62615 7.96351 2.97192 8.20812 3.22685C8.45273 3.48178 8.7845 3.625 9.13043 3.625H14.3478C14.6938 3.625 15.0255 3.48178 15.2701 3.22685C15.5148 2.97192 15.6522 2.62615 15.6522 2.26562V1.8125H14.7826V2.26562C14.7826 2.3858 14.7368 2.50106 14.6553 2.58603C14.5737 2.67101 14.4631 2.71875 14.3478 2.71875H9.13043C9.01512 2.71875 8.90453 2.67101 8.823 2.58603C8.74146 2.50106 8.69565 2.3858 8.69565 2.26562V1.8125H7.82609Z" fill="white"/>
<path d="M15.2174 19.0312V14.0469H14.3478V19.0312C14.3478 19.1514 14.302 19.2667 14.2205 19.3517C14.1389 19.4366 14.0284 19.4844 13.913 19.4844H1.30435C1.18904 19.4844 1.07845 19.4366 0.99691 19.3517C0.915373 19.2667 0.869565 19.1514 0.869565 19.0312V16.7656H0V19.0312C0 19.3918 0.137422 19.7375 0.382034 19.9925C0.626647 20.2474 0.958413 20.3906 1.30435 20.3906H13.913C14.259 20.3906 14.5907 20.2474 14.8354 19.9925C15.08 19.7375 15.2174 19.3918 15.2174 19.0312Z" fill="white"/>
<path d="M0.869565 10.4219C0.869565 10.3017 0.915373 10.1864 0.99691 10.1015C1.07845 10.0165 1.18904 9.96875 1.30435 9.96875H2.6087V10.875H3.47826V9.96875H10.8696V9.0625H3.47826V8.15625H2.6087V9.0625H1.30435C0.958413 9.0625 0.626647 9.20572 0.382034 9.46065C0.137422 9.71558 0 10.0613 0 10.4219V15.8594H0.869565V10.4219Z" fill="white"/>
<path d="M2.17391 11.7812H11.3043V12.6875H2.17391V11.7812Z" fill="white"/>
<path d="M13.5739 9.72406L12.9565 10.3675L13.6435 11.0789C13.7122 11.1508 13.7938 11.2079 13.8837 11.2469C13.9736 11.2858 14.07 11.3059 14.1674 11.3059C14.2648 11.3059 14.3612 11.2858 14.4511 11.2469C14.541 11.2079 14.6226 11.1508 14.6913 11.0789L16.3217 9.38422L15.7043 8.74078L14.1696 10.3448L13.5739 9.72406Z" fill="white"/>
<path d="M11.7391 9.96875C11.7391 10.5961 11.9176 11.2093 12.252 11.7309C12.5865 12.2526 13.0618 12.6591 13.6179 12.8992C14.174 13.1393 14.786 13.2021 15.3764 13.0797C15.9667 12.9573 16.509 12.6552 16.9347 12.2116C17.3603 11.768 17.6502 11.2028 17.7676 10.5876C17.885 9.97227 17.8248 9.33451 17.5944 8.75493C17.3641 8.17534 16.974 7.67996 16.4735 7.33143C15.973 6.9829 15.3846 6.79688 14.7826 6.79688C13.9754 6.79688 13.2013 7.13105 12.6305 7.7259C12.0598 8.32074 11.7391 9.12752 11.7391 9.96875ZM16.9565 9.96875C16.9565 10.4168 16.829 10.8549 16.5902 11.2275C16.3513 11.6 16.0118 11.8904 15.6145 12.0619C15.2173 12.2334 14.7802 12.2783 14.3585 12.1908C13.9368 12.1034 13.5494 11.8876 13.2454 11.5708C12.9414 11.2539 12.7343 10.8502 12.6505 10.4108C12.5666 9.97126 12.6096 9.51572 12.7742 9.10173C12.9387 8.68774 13.2173 8.3339 13.5748 8.08495C13.9323 7.836 14.3526 7.70312 14.7826 7.70312C15.0681 7.70312 15.3508 7.76173 15.6145 7.87559C15.8783 7.98944 16.1179 8.15633 16.3198 8.36671C16.5217 8.57709 16.6818 8.82685 16.791 9.10173C16.9003 9.37661 16.9565 9.67122 16.9565 9.96875Z" fill="white"/>
</svg>
